simulation/qsim/Digital-Frequency-Meter.msim.vcd
$comment
	File created using the following command:
		vcd file Digital-Frequency-Meter.msim.vcd -direction
$end
$date
	Sat Apr 08 19:05:34 2017
$end
$version
	ModelSim Version 10.5b
$end
$timescale
	1ps
$end

$scope module freqtest_vhd_vec_tst $end
$var wire 1 ! CLK $end
$var wire 1 " DUAN [7] $end
$var wire 1 # DUAN [6] $end
$var wire 1 $ DUAN [5] $end
$var wire 1 % DUAN [4] $end
$var wire 1 & DUAN [3] $end
$var wire 1 ' DUAN [2] $end
$var wire 1 ( DUAN [1] $end
$var wire 1 ) DUAN [0] $end
$var wire 1 * WEI [5] $end
$var wire 1 + WEI [4] $end
$var wire 1 , WEI [3] $end
$var wire 1 - WEI [2] $end
$var wire 1 . WEI [1] $end
$var wire 1 / WEI [0] $end

$scope module i1 $end
$var wire 1 0 gnd $end
$var wire 1 1 vcc $end
$var wire 1 2 unknown $end
$var wire 1 3 devoe $end
$var wire 1 4 devclrn $end
$var wire 1 5 devpor $end
$var wire 1 6 ww_devoe $end
$var wire 1 7 ww_devclrn $end
$var wire 1 8 ww_devpor $end
$var wire 1 9 ww_CLK $end
$var wire 1 : ww_DUAN [7] $end
$var wire 1 ; ww_DUAN [6] $end
$var wire 1 < ww_DUAN [5] $end
$var wire 1 = ww_DUAN [4] $end
$var wire 1 > ww_DUAN [3] $end
$var wire 1 ? ww_DUAN [2] $end
$var wire 1 @ ww_DUAN [1] $end
$var wire 1 A ww_DUAN [0] $end
$var wire 1 B ww_WEI [5] $end
$var wire 1 C ww_WEI [4] $end
$var wire 1 D ww_WEI [3] $end
$var wire 1 E ww_WEI [2] $end
$var wire 1 F ww_WEI [1] $end
$var wire 1 G ww_WEI [0] $end
$var wire 1 H \U1|Div2CLK~clkctrl_INCLK_bus\ [3] $end
$var wire 1 I \U1|Div2CLK~clkctrl_INCLK_bus\ [2] $end
$var wire 1 J \U1|Div2CLK~clkctrl_INCLK_bus\ [1] $end
$var wire 1 K \U1|Div2CLK~clkctrl_INCLK_bus\ [0] $end
$var wire 1 L \U7|Equal0~clkctrl_INCLK_bus\ [3] $end
$var wire 1 M \U7|Equal0~clkctrl_INCLK_bus\ [2] $end
$var wire 1 N \U7|Equal0~clkctrl_INCLK_bus\ [1] $end
$var wire 1 O \U7|Equal0~clkctrl_INCLK_bus\ [0] $end
$var wire 1 P \U0|CO0~clkctrl_INCLK_bus\ [3] $end
$var wire 1 Q \U0|CO0~clkctrl_INCLK_bus\ [2] $end
$var wire 1 R \U0|CO0~clkctrl_INCLK_bus\ [1] $end
$var wire 1 S \U0|CO0~clkctrl_INCLK_bus\ [0] $end
$var wire 1 T \CLK~inputclkctrl_INCLK_bus\ [3] $end
$var wire 1 U \CLK~inputclkctrl_INCLK_bus\ [2] $end
$var wire 1 V \CLK~inputclkctrl_INCLK_bus\ [1] $end
$var wire 1 W \CLK~inputclkctrl_INCLK_bus\ [0] $end
$var wire 1 X \DUAN[0]~output_o\ $end
$var wire 1 Y \DUAN[1]~output_o\ $end
$var wire 1 Z \DUAN[2]~output_o\ $end
$var wire 1 [ \DUAN[3]~output_o\ $end
$var wire 1 \ \DUAN[4]~output_o\ $end
$var wire 1 ] \DUAN[5]~output_o\ $end
$var wire 1 ^ \DUAN[6]~output_o\ $end
$var wire 1 _ \DUAN[7]~output_o\ $end
$var wire 1 ` \WEI[0]~output_o\ $end
$var wire 1 a \WEI[1]~output_o\ $end
$var wire 1 b \WEI[2]~output_o\ $end
$var wire 1 c \WEI[3]~output_o\ $end
$var wire 1 d \WEI[4]~output_o\ $end
$var wire 1 e \WEI[5]~output_o\ $end
$var wire 1 f \CLK~input_o\ $end
$var wire 1 g \CLK~inputclkctrl_outclk\ $end
$var wire 1 h \U0|CNT0[1]~2_combout\ $end
$var wire 1 i \U0|CNT0~1_combout\ $end
$var wire 1 j \U0|CNT0~0_combout\ $end
$var wire 1 k \U0|Equal0~0_combout\ $end
$var wire 1 l \U0|CO0~q\ $end
$var wire 1 m \U0|CO0~clkctrl_outclk\ $end
$var wire 1 n \U9|CURSOR[0]~0_combout\ $end
$var wire 1 o \U0|CNT1~1_combout\ $end
$var wire 1 p \U0|CNT1[2]~2_combout\ $end
$var wire 1 q \U0|CNT1~0_combout\ $end
$var wire 1 r \U0|Equal1~0_combout\ $end
$var wire 1 s \U0|CO1~q\ $end
$var wire 1 t \U1|Div2CLK~0_combout\ $end
$var wire 1 u \U1|Div2CLK~feeder_combout\ $end
$var wire 1 v \U1|Div2CLK~q\ $end
$var wire 1 w \U1|Div2CLK~clkctrl_outclk\ $end
$var wire 1 x \U3|CQI~2_combout\ $end
$var wire 1 y \U3|CQI[2]~feeder_combout\ $end
$var wire 1 z \U1|CLR_CNT~combout\ $end
$var wire 1 { \U3|CQI~0_combout\ $end
$var wire 1 | \U3|CQI[0]~feeder_combout\ $end
$var wire 1 } \U3|CQI~1_combout\ $end
$var wire 1 ~ \U3|CQI[1]~feeder_combout\ $end
$var wire 1 !! \U3|CQI~3_combout\ $end
$var wire 1 "! \U3|CQI[3]~feeder_combout\ $end
$var wire 1 #! \U3|Equal0~combout\ $end
$var wire 1 $! \U4|CQI~3_combout\ $end
$var wire 1 %! \U4|CQI[3]~feeder_combout\ $end
$var wire 1 &! \U4|CQI~2_combout\ $end
$var wire 1 '! \U4|CQI[2]~feeder_combout\ $end
$var wire 1 (! \U4|CQI~0_combout\ $end
$var wire 1 )! \U4|CQI[0]~feeder_combout\ $end
$var wire 1 *! \U4|CQI~1_combout\ $end
$var wire 1 +! \U4|CQI[1]~feeder_combout\ $end
$var wire 1 ,! \U2|DOUT[5]~feeder_combout\ $end
$var wire 1 -! \U2|DOUT[1]~feeder_combout\ $end
$var wire 1 .! \U9|NUM[1]~1_combout\ $end
$var wire 1 /! \U4|Equal0~combout\ $end
$var wire 1 0! \U5|CQI~3_combout\ $end
$var wire 1 1! \U5|CQI~2_combout\ $end
$var wire 1 2! \U5|CQI[2]~feeder_combout\ $end
$var wire 1 3! \U5|CQI~0_combout\ $end
$var wire 1 4! \U5|CQI[0]~feeder_combout\ $end
$var wire 1 5! \U5|CQI~1_combout\ $end
$var wire 1 6! \U5|CQI[1]~feeder_combout\ $end
$var wire 1 7! \U2|DOUT[9]~feeder_combout\ $end
$var wire 1 8! \U9|COUNTER~1_combout\ $end
$var wire 1 9! \U9|COUNTER~0_combout\ $end
$var wire 1 :! \U5|Equal0~combout\ $end
$var wire 1 ;! \U6|CQI~2_combout\ $end
$var wire 1 <! \U6|CQI[2]~feeder_combout\ $end
$var wire 1 =! \U6|CQI~3_combout\ $end
$var wire 1 >! \U6|CQI[3]~feeder_combout\ $end
$var wire 1 ?! \U6|CQI~0_combout\ $end
$var wire 1 @! \U6|CQI[0]~feeder_combout\ $end
$var wire 1 A! \U6|CQI~1_combout\ $end
$var wire 1 B! \U6|Equal0~combout\ $end
$var wire 1 C! \U7|CQI~1_combout\ $end
$var wire 1 D! \U7|CQI[1]~feeder_combout\ $end
$var wire 1 E! \U7|CQI~2_combout\ $end
$var wire 1 F! \U7|CQI[2]~feeder_combout\ $end
$var wire 1 G! \U7|CQI~3_combout\ $end
$var wire 1 H! \U7|CQI[3]~feeder_combout\ $end
$var wire 1 I! \U7|CQI~0_combout\ $end
$var wire 1 J! \U7|CQI[0]~feeder_combout\ $end
$var wire 1 K! \U7|Equal0~combout\ $end
$var wire 1 L! \U7|Equal0~clkctrl_outclk\ $end
$var wire 1 M! \U8|CQI~2_combout\ $end
$var wire 1 N! \U8|CQI[2]~feeder_combout\ $end
$var wire 1 O! \U8|CQI~0_combout\ $end
$var wire 1 P! \U8|CQI[0]~feeder_combout\ $end
$var wire 1 Q! \U8|CQI~3_combout\ $end
$var wire 1 R! \U8|CQI[3]~feeder_combout\ $end
$var wire 1 S! \U8|CQI~1_combout\ $end
$var wire 1 T! \U8|CQI[1]~feeder_combout\ $end
$var wire 1 U! \U2|DOUT[21]~feeder_combout\ $end
$var wire 1 V! \U9|Mux2~0_combout\ $end
$var wire 1 W! \U9|Mux2~1_combout\ $end
$var wire 1 X! \U2|DOUT[3]~feeder_combout\ $end
$var wire 1 Y! \U9|NUM[3]~3_combout\ $end
$var wire 1 Z! \U2|DOUT[23]~feeder_combout\ $end
$var wire 1 [! \U9|Mux0~0_combout\ $end
$var wire 1 \! \U9|Mux0~1_combout\ $end
$var wire 1 ]! \U2|DOUT[0]~feeder_combout\ $end
$var wire 1 ^! \U2|DOUT[4]~feeder_combout\ $end
$var wire 1 _! \U9|NUM[0]~0_combout\ $end
$var wire 1 `! \U2|DOUT[20]~feeder_combout\ $end
$var wire 1 a! \U9|Mux3~0_combout\ $end
$var wire 1 b! \U9|Mux3~1_combout\ $end
$var wire 1 c! \U2|DOUT[6]~feeder_combout\ $end
$var wire 1 d! \U2|DOUT[2]~feeder_combout\ $end
$var wire 1 e! \U9|NUM[2]~2_combout\ $end
$var wire 1 f! \U2|DOUT[10]~feeder_combout\ $end
$var wire 1 g! \U2|DOUT[22]~feeder_combout\ $end
$var wire 1 h! \U9|Mux1~0_combout\ $end
$var wire 1 i! \U9|Mux1~1_combout\ $end
$var wire 1 j! \U11|Mux7~0_combout\ $end
$var wire 1 k! \U11|Mux6~0_combout\ $end
$var wire 1 l! \U11|Mux5~0_combout\ $end
$var wire 1 m! \U11|Mux4~0_combout\ $end
$var wire 1 n! \U11|Mux3~0_combout\ $end
$var wire 1 o! \U11|Mux2~0_combout\ $end
$var wire 1 p! \U11|Mux1~0_combout\ $end
$var wire 1 q! \U9|CURSOR[2]~feeder_combout\ $end
$var wire 1 r! \U9|CURSOR[1]~feeder_combout\ $end
$var wire 1 s! \U10|RotateRight0~0_combout\ $end
$var wire 1 t! \U10|RotateRight0~1_combout\ $end
$var wire 1 u! \U10|RotateRight0~2_combout\ $end
$var wire 1 v! \U10|RotateRight0~3_combout\ $end
$var wire 1 w! \U10|RotateRight0~4_combout\ $end
$var wire 1 x! \U10|RotateRight0~5_combout\ $end
$var wire 1 y! \U7|CQI\ [3] $end
$var wire 1 z! \U7|CQI\ [2] $end
$var wire 1 {! \U7|CQI\ [1] $end
$var wire 1 |! \U7|CQI\ [0] $end
$var wire 1 }! \U9|NUM\ [3] $end
$var wire 1 ~! \U9|NUM\ [2] $end
$var wire 1 !" \U9|NUM\ [1] $end
$var wire 1 "" \U9|NUM\ [0] $end
$var wire 1 #" \U0|CNT0\ [2] $end
$var wire 1 $" \U0|CNT0\ [1] $end
$var wire 1 %" \U0|CNT0\ [0] $end
$var wire 1 &" \U9|CURSOR\ [2] $end
$var wire 1 '" \U9|CURSOR\ [1] $end
$var wire 1 (" \U9|CURSOR\ [0] $end
$var wire 1 )" \U5|CQI\ [3] $end
$var wire 1 *" \U5|CQI\ [2] $end
$var wire 1 +" \U5|CQI\ [1] $end
$var wire 1 ," \U5|CQI\ [0] $end
$var wire 1 -" \U2|DOUT\ [23] $end
$var wire 1 ." \U2|DOUT\ [22] $end
$var wire 1 /" \U2|DOUT\ [21] $end
$var wire 1 0" \U2|DOUT\ [20] $end
$var wire 1 1" \U2|DOUT\ [19] $end
$var wire 1 2" \U2|DOUT\ [18] $end
$var wire 1 3" \U2|DOUT\ [17] $end
$var wire 1 4" \U2|DOUT\ [16] $end
$var wire 1 5" \U2|DOUT\ [15] $end
$var wire 1 6" \U2|DOUT\ [14] $end
$var wire 1 7" \U2|DOUT\ [13] $end
$var wire 1 8" \U2|DOUT\ [12] $end
$var wire 1 9" \U2|DOUT\ [11] $end
$var wire 1 :" \U2|DOUT\ [10] $end
$var wire 1 ;" \U2|DOUT\ [9] $end
$var wire 1 <" \U2|DOUT\ [8] $end
$var wire 1 =" \U2|DOUT\ [7] $end
$var wire 1 >" \U2|DOUT\ [6] $end
$var wire 1 ?" \U2|DOUT\ [5] $end
$var wire 1 @" \U2|DOUT\ [4] $end
$var wire 1 A" \U2|DOUT\ [3] $end
$var wire 1 B" \U2|DOUT\ [2] $end
$var wire 1 C" \U2|DOUT\ [1] $end
$var wire 1 D" \U2|DOUT\ [0] $end
$var wire 1 E" \U3|CQI\ [3] $end
$var wire 1 F" \U3|CQI\ [2] $end
$var wire 1 G" \U3|CQI\ [1] $end
$var wire 1 H" \U3|CQI\ [0] $end
$var wire 1 I" \U9|COUNTER\ [2] $end
$var wire 1 J" \U9|COUNTER\ [1] $end
$var wire 1 K" \U9|COUNTER\ [0] $end
$var wire 1 L" \U4|CQI\ [3] $end
$var wire 1 M" \U4|CQI\ [2] $end
$var wire 1 N" \U4|CQI\ [1] $end
$var wire 1 O" \U4|CQI\ [0] $end
$var wire 1 P" \U8|CQI\ [3] $end
$var wire 1 Q" \U8|CQI\ [2] $end
$var wire 1 R" \U8|CQI\ [1] $end
$var wire 1 S" \U8|CQI\ [0] $end
$var wire 1 T" \U6|CQI\ [3] $end
$var wire 1 U" \U6|CQI\ [2] $end
$var wire 1 V" \U6|CQI\ [1] $end
$var wire 1 W" \U6|CQI\ [0] $end
$var wire 1 X" \U0|CNT1\ [3] $end
$var wire 1 Y" \U0|CNT1\ [2] $end
$var wire 1 Z" \U0|CNT1\ [1] $end
$var wire 1 [" \U0|CNT1\ [0] $end
$var wire 1 \" \U1|ALT_INV_Div2CLK~clkctrl_outclk\ $end
$var wire 1 ]" \U1|ALT_INV_CLR_CNT~combout\ $end
$var wire 1 ^" \U9|ALT_INV_COUNTER\ [2] $end
$var wire 1 _" \U11|ALT_INV_Mux1~0_combout\ $end
$upscope $end
$upscope $end
$enddefinitions $end
#0
$dumpvars
0!
00
11
x2
13
14
15
16
17
18
09
0X
0Y
0Z
0[
0\
0]
1^
1_
1`
1a
1b
1c
0d
1e
0f
0g
0h
1i
0j
0k
0l
0m
1n
0o
0p
0q
0r
0s
1t
1u
0v
0w
0x
0y
1z
1{
1|
0}
0~
0!!
0"!
0#!
0$!
0%!
0&!
0'!
1(!
1)!
0*!
0+!
0,!
0-!
0.!
0/!
00!
01!
02!
13!
14!
05!
06!
07!
08!
09!
0:!
0;!
0<!
0=!
0>!
1?!
1@!
0A!
0B!
0C!
0D!
0E!
0F!
0G!
0H!
1I!
1J!
0K!
0L!
0M!
0N!
1O!
1P!
0Q!
0R!
0S!
0T!
0U!
0V!
0W!
0X!
0Y!
0Z!
0[!
0\!
0]!
0^!
0_!
0`!
0a!
0b!
0c!
0d!
0e!
0f!
0g!
0h!
0i!
0j!
0k!
0l!
0m!
0n!
0o!
0p!
0q!
0r!
1s!
1t!
1u!
1v!
0w!
1x!
1\"
0]"
1_"
1:
1;
0<
0=
0>
0?
0@
0A
1B
0C
1D
1E
1F
1G
0y!
0z!
0{!
0|!
0}!
0~!
0!"
0""
0#"
0$"
0%"
0&"
0'"
0("
0)"
0*"
0+"
0,"
0-"
0."
0/"
00"
01"
02"
03"
04"
05"
06"
07"
08"
09"
0:"
0;"
0<"
0="
0>"
0?"
0@"
0A"
0B"
0C"
0D"
0E"
0F"
0G"
0H"
0I"
0J"
xK"
0L"
0M"
0N"
0O"
0P"
0Q"
0R"
0S"
0T"
0U"
0V"
0W"
0X"
0Y"
0Z"
x["
1^"
1T
1U
1V
0W
1P
1Q
1R
0S
1H
1I
1J
0K
1L
1M
1N
0O
1"
1#
0$
0%
0&
0'
0(
0)
1*
0+
1,
1-
1.
1/
$end
#10000
1!
19
1f
1W
1g
1%"
1h
0i
#20000
0!
09
0f
0W
0g
#30000
1!
19
1f
1W
1g
1$"
0%"
1i
#40000
0!
09
0f
0W
0g
#50000
1!
19
1f
1W
1g
1%"
0h
0i
1j
#60000
0!
09
0f
0W
0g
#70000
1!
19
1f
1W
1g
0$"
0%"
1#"
0j
1k
#80000
0!
09
0f
0W
0g
#90000
1!
19
1f
1W
1g
0#"
1l
1S
1i
0k
1m
1("
0n
1o
19!
1w!
0x!
0e
1d
0B
1C
1+
0*
#100000
0!
09
0f
0W
0g
#110000
1!
19
1f
1W
1g
1%"
0l
0S
1h
0i
0m
#120000
0!
09
0f
0W
0g
#130000
1!
19
1f
1W
1g
1$"
0%"
1i
#140000
0!
09
0f
0W
0g
#150000
1!
19
1f
1W
1g
1%"
0h
0i
1j
#160000
0!
09
0f
0W
0g
#170000
1!
19
1f
1W
1g
0$"
0%"
1#"
0j
1k
#180000
0!
09
0f
0W
0g
#190000
1!
19
1f
1W
1g
0#"
1l
1S
1i
0k
1m
0("
1Z"
1J"
1r!
1n
1V!
1[!
1a!
1h!
0w!
1x!
1e
0d
1B
0C
0+
1*
#200000
0!
09
0f
0W
0g
#210000
1!
19
1f
1W
1g
1%"
0l
0S
1h
0i
0m
#220000
0!
09
0f
0W
0g
#230000
1!
19
1f
1W
1g
1$"
0%"
1i
#240000
0!
09
0f
0W
0g
#250000
1!
19
1f
1W
1g
1%"
0h
0i
1j
#260000
0!
09
0f
0W
0g
#270000
1!
19
1f
1W
1g
0$"
0%"
1#"
0j
1k
#280000
0!
09
0f
0W
0g
#290000
1!
19
1f
1W
1g
0#"
1l
1S
1i
0k
1m
1("
1'"
0n
0o
1p
18!
09!
0V!
0[!
0a!
0h!
0v!
1w!
1d
0c
1C
0D
0,
1+
#300000
0!
09
0f
0W
0g
#310000
1!
19
1f
1W
1g
1%"
0l
0S
1h
0i
0m
#320000
0!
09
0f
0W
0g
#330000
1!
19
1f
1W
1g
1$"
0%"
1i
#340000
0!
09
0f
0W
0g
#350000
1!
19
1f
1W
1g
1%"
0h
0i
1j
#360000
0!
09
0f
0W
0g
#370000
1!
19
1f
1W
1g
0$"
0%"
1#"
0j
1k
#380000
0!
09
0f
0W
0g
#390000
1!
19
1f
1W
1g
0#"
1l
1S
1i
0k
1m
0("
0Z"
1Y"
1I"
0J"
0^"
0r!
1q!
1n
0u!
1v!
1c
0b
1D
0E
0-
1,
#400000
0!
09
0f
0W
0g
#410000
1!
19
1f
1W
1g
1%"
0l
0S
1h
0i
0m
#420000
0!
09
0f
0W
0g
#430000
1!
19
1f
1W
1g
1$"
0%"
1i
#440000
0!
09
0f
0W
0g
#450000
1!
19
1f
1W
1g
1%"
0h
0i
1j
#460000
0!
09
0f
0W
0g
#470000
1!
19
1f
1W
1g
0$"
0%"
1#"
0j
1k
#480000
0!
09
0f
0W
0g
#490000
1!
19
1f
1W
1g
0#"
1l
1S
1i
0k
1m
1("
1&"
0'"
0n
1o
08!
0t!
1u!
1b
0a
1E
0F
0.
1-
#500000
0!
09
0f
0W
0g
#510000
1!
19
1f
1W
1g
1%"
0l
0S
1h
0i
0m
#520000
0!
09
0f
0W
0g
#530000
1!
19
1f
1W
1g
1$"
0%"
1i
#540000
0!
09
0f
0W
0g
#550000
1!
19
1f
1W
1g
1%"
0h
0i
1j
#560000
0!
09
0f
0W
0g
#570000
1!
19
1f
1W
1g
0$"
0%"
1#"
0j
1k
#580000
0!
09
0f
0W
0g
#590000
1!
19
1f
1W
1g
0#"
1l
1S
1i
0k
1m
0("
1Z"
0I"
1^"
0q!
1n
0s!
1t!
1a
0`
1F
0G
0/
1.
#600000
0!
09
0f
0W
0g
#610000
1!
19
1f
1W
1g
1%"
0l
0S
1h
0i
0m
#620000
0!
09
0f
0W
0g
#630000
1!
19
1f
1W
1g
1$"
0%"
1i
#640000
0!
09
0f
0W
0g
#650000
1!
19
1f
1W
1g
1%"
0h
0i
1j
#660000
0!
09
0f
0W
0g
#670000
1!
19
1f
1W
1g
0$"
0%"
1#"
0j
1k
#680000
0!
09
0f
0W
0g
#690000
1!
19
1f
1W
1g
0#"
1l
1S
1i
0k
1m
1("
0&"
0n
0o
0p
1q
19!
1s!
0x!
0e
1`
0B
1G
1/
0*
#700000
0!
09
0f
0W
0g
#710000
1!
19
1f
1W
1g
1%"
0l
0S
1h
0i
0m
#720000
0!
09
0f
0W
0g
#730000
1!
19
1f
1W
1g
1$"
0%"
1i
#740000
0!
09
0f
0W
0g
#750000
1!
19
1f
1W
1g
1%"
0h
0i
1j
#760000
0!
09
0f
0W
0g
#770000
1!
19
1f
1W
1g
0$"
0%"
1#"
0j
1k
#780000
0!
09
0f
0W
0g
#790000
1!
19
1f
1W
1g
0#"
1l
1S
1i
0k
1m
0("
0Z"
0Y"
1X"
1J"
1r!
1n
1V!
1[!
1a!
1h!
0w!
1x!
1e
0d
1B
0C
0+
1*
#800000
0!
09
0f
0W
0g
#810000
1!
19
1f
1W
1g
1%"
0l
0S
1h
0i
0m
#820000
0!
09
0f
0W
0g
#830000
1!
19
1f
1W
1g
1$"
0%"
1i
#840000
0!
09
0f
0W
0g
#850000
1!
19
1f
1W
1g
1%"
0h
0i
1j
#860000
0!
09
0f
0W
0g
#870000
1!
19
1f
1W
1g
0$"
0%"
1#"
0j
1k
#880000
0!
09
0f
0W
0g
#890000
1!
19
1f
1W
1g
0#"
1l
1S
1i
0k
1m
1("
1'"
0n
0q
1r
18!
09!
0V!
0[!
0a!
0h!
0v!
1w!
1d
0c
1C
0D
0,
1+
#900000
0!
09
0f
0W
0g
#910000
1!
19
1f
1W
1g
1%"
0l
0S
1h
0i
0m
#920000
0!
09
0f
0W
0g
#930000
1!
19
1f
1W
1g
1$"
0%"
1i
#940000
0!
09
0f
0W
0g
#950000
1!
19
1f
1W
1g
1%"
0h
0i
1j
#960000
0!
09
0f
0W
0g
#970000
1!
19
1f
1W
1g
0$"
0%"
1#"
0j
1k
#980000
0!
09
0f
0W
0g
#990000
1!
19
1f
1W
1g
0#"
1l
1S
1i
0k
1m
0("
0X"
1s
1I"
0J"
0^"
0r!
1q!
1v
0z
1n
0r
0u!
1v!
1]"
1K
0t
0u
1c
0b
1w
0\"
1D
0E
0-
1,
#1000000
0!
09
0f
0W
0g
#1010000
1!
19
1f
1W
1g
1%"
0l
0S
1h
0i
0m
#1020000
0!
09
0f
0W
0g
#1030000
1!
19
1f
1W
1g
1$"
0%"
1i
#1040000
0!
09
0f
0W
0g
#1050000
1!
19
1f
1W
1g
1%"
0h
0i
1j
#1060000
0!
09
0f
0W
0g
#1070000
1!
19
1f
1W
1g
0$"
0%"
1#"
0j
1k
#1080000
0!
09
0f
0W
0g
#1090000
1!
19
1f
1W
1g
0#"
1l
1S
1i
0k
1m
1("
0s
1H"
1&"
0'"
0{
1}
1]!
0n
1o
08!
0t!
1u!
1~
0|
1b
0a
1E
0F
0.
1-
#1100000
0!
09
0f
0W
0g
#1110000
1!
19
1f
1W
1g
1%"
0l
0S
1h
0i
0m
#1120000
0!
09
0f
0W
0g
#1130000
1!
19
1f
1W
1g
1$"
0%"
1i
#1140000
0!
09
0f
0W
0g
#1150000
1!
19
1f
1W
1g
1%"
0h
0i
1j
#1160000
0!
09
0f
0W
0g
#1170000
1!
19
1f
1W
1g
0$"
0%"
1#"
0j
1k
#1180000
0!
09
0f
0W
0g
#1190000
1!
19
1f
1W
1g
0#"
1l
1S
1G"
1i
0k
1x
0}
1-!
1m
0~
1y
0("
1Z"
0H"
0I"
1^"
0q!
0x
1{
1}
0]!
1n
0s!
1t!
1~
1|
0y
1a
0`
1F
0G
0/
1.
#1200000
0!
09
0f
0W
0g
#1210000
1!
19
1f
1W
1g
1%"
0l
0S
1h
0i
0m
#1220000
0!
09
0f
0W
0g
#1230000
1!
19
1f
1W
1g
1$"
0%"
1i
#1240000
0!
09
0f
0W
0g
#1250000
1!
19
1f
1W
1g
1%"
0h
0i
1j
#1260000
0!
09
0f
0W
0g
#1270000
1!
19
1f
1W
1g
0$"
0%"
1#"
0j
1k
#1280000
0!
09
0f
0W
0g
#1290000
1!
19
1f
1W
1g
0#"
1l
1S
1i
0k
1m
1("
1H"
0&"
1x
0{
0}
1]!
0n
0o
1p
19!
1s!
0x!
0~
0|
1y
0e
1`
0B
1G
1/
0*
#1300000
0!
09
0f
0W
0g
#1310000
1!
19
1f
1W
1g
1%"
0l
0S
1h
0i
0m
#1320000
0!
09
0f
0W
0g
#1330000
1!
19
1f
1W
1g
1$"
0%"
1i
#1340000
0!
09
0f
0W
0g
#1350000
1!
19
1f
1W
1g
1%"
0h
0i
1j
#1360000
0!
09
0f
0W
0g
#1370000
1!
19
1f
1W
1g
0$"
0%"
1#"
0j
1k
#1380000
0!
09
0f
0W
0g
#1390000
1!
19
1f
1W
1g
0#"
1l
1S
1F"
0G"
1i
0k
1}
0-!
1d!
1m
1~
0("
0Z"
1Y"
0H"
1J"
1r!
1{
0}
0]!
1n
1V!
1[!
1a!
1h!
0w!
1x!
0~
1|
1e
0d
1B
0C
0+
1*
#1400000
0!
09
0f
0W
0g
#1410000
1!
19
1f
1W
1g
1%"
0l
0S
1h
0i
0m
#1420000
0!
09
0f
0W
0g
#1430000
1!
19
1f
1W
1g
1$"
0%"
1i
#1440000
0!
09
0f
0W
0g
#1450000
1!
19
1f
1W
1g
1%"
0h
0i
1j
#1460000
0!
09
0f
0W
0g
#1470000
1!
19
1f
1W
1g
0$"
0%"
1#"
0j
1k
#1480000
0!
09
0f
0W
0g
#1490000
1!
19
1f
1W
1g
0#"
1l
1S
1i
0k
1m
1("
1H"
1'"
0{
1}
1]!
0n
1o
18!
09!
0V!
0[!
0a!
0h!
0v!
1w!
1~
0|
1d
0c
1C
0D
0,
1+
#1500000
0!
09
0f
0W
0g
#1510000
1!
19
1f
1W
1g
1%"
0l
0S
1h
0i
0m
#1520000
0!
09
0f
0W
0g
#1530000
1!
19
1f
1W
1g
1$"
0%"
1i
#1540000
0!
09
0f
0W
0g
#1550000
1!
19
1f
1W
1g
1%"
0h
0i
1j
#1560000
0!
09
0f
0W
0g
#1570000
1!
19
1f
1W
1g
0$"
0%"
1#"
0j
1k
#1580000
0!
09
0f
0W
0g
#1590000
1!
19
1f
1W
1g
0#"
1l
1S
1G"
1i
0k
0x
0}
1!!
1-!
1m
1"!
0~
0y
0("
1Z"
0H"
1I"
0J"
0^"
0r!
1q!
1x
1{
1}
0!!
0]!
1n
0u!
1v!
0"!
1~
1|
1y
1c
0b
1D
0E
0-
1,
#1600000
0!
09
0f
0W
0g
#1610000
1!
19
1f
1W
1g
1%"
0l
0S
1h
0i
0m
#1620000
0!
09
0f
0W
0g
#1630000
1!
19
1f
1W
1g
1$"
0%"
1i
#1640000
0!
09
0f
0W
0g
#1650000
1!
19
1f
1W
1g
1%"
0h
0i
1j
#1660000
0!
09
0f
0W
0g
#1670000
1!
19
1f
1W
1g
0$"
0%"
1#"
0j
1k
#1680000
0!
09
0f
0W
0g
#1690000
1!
19
1f
1W
1g
0#"
1l
1S
1i
0k
1m
1("
1H"
1&"
0'"
0x
0{
0}
1!!
1]!
0n
0o
0p
1q
08!
0t!
1u!
1"!
0~
0|
0y
1b
0a
1E
0F
0.
1-
#1700000
0!
09
0f
0W
0g
#1710000
1!
19
1f
1W
1g
1%"
0l
0S
1h
0i
0m
#1720000
0!
09
0f
0W
0g
#1730000
1!
19
1f
1W
1g
1$"
0%"
1i
#1740000
0!
09
0f
0W
0g
#1750000
1!
19
1f
1W
1g
1%"
0h
0i
1j
#1760000
0!
09
0f
0W
0g
#1770000
1!
19
1f
1W
1g
0$"
0%"
1#"
0j
1k
#1780000
0!
09
0f
0W
0g
#1790000
1!
19
1f
1W
1g
0#"
1l
1S
0F"
0G"
1E"
1i
0k
1X!
0-!
0!!
1#!
0d!
1m
1O"
0"!
0("
0Z"
0Y"
1X"
0H"
0I"
0(!
1*!
1^!
1^"
0q!
1{
1!!
0#!
0]!
1n
0s!
1t!
1+!
0)!
1"!
1|
1a
0`
1F
0G
0/
1.
#1800000
0!
09
0f
0W
0g
#1810000
1!
19
1f
1W
1g
1%"
0l
0S
1h
0i
0m
#1820000
0!
09
0f
0W
0g
#1830000
1!
19
1f
1W
1g
1$"
0%"
1i
#1840000
0!
09
0f
0W
0g
#1850000
1!
19
1f
1W
1g
1%"
0h
0i
1j
#1860000
0!
09
0f
0W
0g
#1870000
1!
19
1f
1W
1g
0$"
0%"
1#"
0j
1k
#1880000
0!
09
0f
0W
0g
#1890000
1!
19
1f
1W
1g
0#"
1l
1S
1i
0k
1m
1("
1H"
0&"
0{
0!!
1#!
1]!
0n
0q
1r
19!
1s!
0x!
0O"
1N"
0"!
0|
1,!
1(!
0^!
0e
1`
1)!
0B
1G
1/
0*
#1900000
0!
09
0f
0W
0g
#1910000
1!
19
1f
1W
1g
1%"
0l
0S
1h
0i
0m
#1920000
0!
09
0f
0W
0g
#1930000
1!
19
1f
1W
1g
1$"
0%"
1i
#1940000
0!
09
0f
0W
0g
#1950000
1!
19
1f
1W
1g
1%"
0h
0i
1j
#1960000
0!
09
0f
0W
0g
#1970000
1!
19
1f
1W
1g
0$"
0%"
1#"
0j
1k
#1980000
0!
09
0f
0W
0g
#1990000
1!
19
1f
1W
1g
0#"
1l
1S
0E"
1i
0k
1}
0#!
0X!
1m
1~
0("
0X"
1s
0H"
1J"
1r!
1{
0}
0]!
0v
1n
0r
1V!
1[!
1a!
1h!
0w!
1x!
0K
1t
0~
1|
1u
1e
0d
0w
1\"
1B
0C
0+
1*
1?"
1.!
#2000000
0!
09
0f
0W
0g
#2010000
1!
19
1f
1W
1g
1%"
0l
0S
1h
0i
0m
#2020000
0!
09
0f
0W
0g
#2030000
1!
19
1f
1W
1g
1$"
0%"
1i
#2040000
0!
09
0f
0W
0g
#2050000
1!
19
1f
1W
1g
1%"
0h
0i
1j
#2060000
0!
09
0f
0W
0g
#2070000
1!
19
1f
1W
1g
0$"
0%"
1#"
0j
1k
#2080000
0!
09
0f
0W
0g
#2090000
1!
19
1f
1W
1g
0#"
1l
1S
1i
0k
1m
1("
0s
1'"
1z
0n
1o
0.!
18!
09!
0V!
0[!
0a!
0h!
0v!
1w!
0]"
0N"
1d
0c
0*!
0,!
1C
0D
0+!
0,
1+
#2100000
0!
09
0f
0W
0g
